################################################################################
# software: XSACT 3.0.0.0
# copyright: Xenocs 2023
# type: Fit model
# components: 2
################################################################################
                    q[Å⁻¹]                     Model                  σ(Model)                         
     0.0031410000000000001        1.2439336483015275                         0                         
     0.0033110000000000001        1.2412280870949028                         0                         
     0.0034810000000000002        1.2383856966965949                         0                         
     0.0036510000000000002         1.235407350153811                         0                         
                   0.00382        1.2323126683234797                         0                         
     0.0039899999999999996        1.2290659770756893                         0                         
     0.0041599999999999996        1.2256861856141532                         0                         
     0.0043299999999999996        1.2221743271119887                         0                         
     0.0044990000000000004        1.2185532831033503                         0                         
     0.0046690000000000004        1.2147813060004635                         0                         
     0.0048390000000000004        1.2108805861362961                         0                         
     0.0050090000000000004        1.2068523091697085                         0                         
     0.0051789999999999996        1.2026976976120614                         0                         
     0.0053480000000000003        1.1984435481024569                         0                         
     0.0055180000000000003        1.1940408037443833                         0                         
     0.0056880000000000003        1.1895155998060329                         0                         
     0.0058580000000000004         1.184869300213899                         0                         
     0.0060280000000000004        1.1801033027768348                         0                         
     0.0061970000000000003        1.1752481124809593                         0                         
     0.0063670000000000003        1.1702477278332108                         0                         
     0.0065370000000000003        1.1651320267052157                         0                         
     0.0067070000000000003        1.1599025357178523                         0                         
     0.0068770000000000003        1.1545608120429842                         0                         
     0.0070460000000000002        1.1491408358451891                         0                         
     0.0072160000000000002        1.1435800735404902                         0                         
     0.0073860000000000002        1.1379119164914733                         0                         
     0.0075560000000000002        1.1321380367315947                         0                         
     0.0077260000000000002         1.126260133201425                         0                         
     0.0078949999999999992        1.1203154043648353                         0                         
     0.0080649999999999993        1.1142352402150342                         0                         
     0.0082349999999999993         1.108056292372009                         0                         
     0.0084049999999999993        1.1017803595436308                         0                         
                  0.008574        1.0954470151497924                         0                         
                  0.008744        1.0889831431850703                         0                         
                  0.008914        1.0824278061078909                         0                         
     0.0090840000000000001        1.0757828896443824                         0                         
     0.0092540000000000001        1.0690502992532949                         0                         
     0.0094230000000000008        1.0622723141267483                         0                         
     0.0095930000000000008        1.0553706542720183                         0                         
     0.0097630000000000008        1.0483871352984031                         0                         
     0.0099330000000000009        1.0413237330869087                         0                         
      0.010102999999999999        1.0341824390234386                         0                         
                  0.010272        1.0270079310996401                         0                         
                  0.010442        1.0197173137802029                         0                         
                  0.010612        1.0123548511845986                         0                         
                  0.010782        1.0049225880167199                         0                         
                  0.010952       0.99742258016031249                         0                         
      0.011121000000000001       0.98990158584996546                         0                         
      0.011291000000000001       0.98227266467238017                         0                         
      0.011461000000000001       0.97458221252408483                         0                         
      0.011631000000000001       0.96683232123313345                         0                         
                    0.0118       0.95907117790655116                         0                         
                   0.01197       0.95120902896401371                         0                         
                   0.01214       0.94329374135387212                         0                         
                   0.01231       0.93532742892020571                         0                         
                   0.01248       0.92731220884830035                         0                         
      0.012649000000000001       0.91929775705680816                         0                         
      0.012819000000000001       0.91119133885035364                         0                         
      0.012989000000000001       0.90304236349617761                         0                         
      0.013159000000000001         0.894852952935841                         0                         
      0.013329000000000001        0.8866252281707564                         0                         
                  0.013498        0.8784100214252174                         0                         
                  0.013668       0.87011221755802337                         0                         
                  0.013838       0.86178243601761551                         0                         
                  0.014008        0.8534227856880432                         0                         
                  0.014178       0.84503537035623499                         0                         
                  0.014347       0.83667184759936952                         0                         
                  0.014517       0.82823532176144921                         0                         
                  0.014687       0.81977729137712652                         0                         
                  0.014857       0.81129983184627008                         0                         
                  0.015027       0.80280500949194744                         0                         
      0.015195999999999999       0.79434498114215801                         0                         
      0.015365999999999999       0.78582166399930165                         0                         
      0.015535999999999999       0.77728710894444286                         0                         
      0.015706000000000001       0.76874333845154663                         0                         
                  0.015875       0.76024267920748345                         0                         
                  0.016045       0.75168651805565345                         0                         
                  0.016215       0.74312711742148363                         0                         
                  0.016385       0.73456644427104401                         0                         
                  0.016555       0.72600644993115293                         0                         
      0.016723999999999999       0.71749939556934506                         0                         
      0.016893999999999999       0.70894651468545533                         0                         
      0.017063999999999999       0.70040005495574675                         0                         
      0.017233999999999999       0.69186189864738101                         0                         
      0.017403999999999999       0.68333390915019709                         0                         
      0.017572999999999998       0.67486798568817119                         0                         
      0.017742999999999998       0.66636575477034876                         0                         
      0.017912999999999998       0.65787915100384364                         0                         
      0.018082999999999998       0.64940995644534594                         0                         
      0.018252999999999998       0.64095993137281104                         0                         
      0.018422000000000001       0.63258033231694888                         0                         
      0.018592000000000001       0.62417369921697785                         0                         
      0.018762000000000001       0.61579137057744404                         0                         
      0.018932000000000001       0.60743501447340087                         0                         
      0.019102000000000001       0.59910627466475197                         0                         
                  0.019271       0.59085550215885874                         0                         
                  0.019441       0.58258664070820354                         0                         
                  0.019611       0.57435016725201837                         0                         
                  0.019781       0.56614762398169005                         0                         
      0.019949999999999999       0.55802846182673205                         0                         
      0.020119999999999999       0.54989807769689869                         0                         
      0.020289999999999999       0.54180608150741671                         0                         
      0.020459999999999999       0.53375390752421992                         0                         
      0.020629999999999999       0.52574296211833726                         0                         
      0.020799000000000002       0.51782136881526819                         0                         
      0.020969000000000002       0.50989672407082787                         0                         
      0.021139000000000002       0.50201734887324012                         0                         
      0.021309000000000002       0.49418453517907523                         0                         
      0.021479000000000002       0.48639954563087245                         0                         
      0.021648000000000001       0.47870897301620169                         0                         
      0.021818000000000001        0.4710230021646602                         0                         
      0.021988000000000001       0.46338845842588966                         0                         
      0.022158000000000001       0.45580648518456374                         0                         
      0.022328000000000001       0.44827819550518816                         0                         
                  0.022497       0.44084847169427521                         0                         
                  0.022667       0.43343043495002676                         0                         
                  0.022837       0.42606923168513261                         0                         
                  0.023007       0.41876585250898901                         0                         
                  0.023177       0.41152125711474097                         0                         
      0.023345999999999999       0.40437846187386106                         0                         
      0.023515999999999999       0.39725383002514758                         0                         
      0.023685999999999999       0.39019066990531998                         0                         
      0.023855999999999999       0.38318981717671702                         0                         
      0.024025000000000001       0.37629270058014941                         0                         
      0.024195000000000001       0.36941846718502269                         0                         
      0.024365000000000001       0.36260885726916386                         0                         
      0.024535000000000001       0.35586458233913554                         0                         
      0.024705000000000001       0.34918632291224305                         0                         
                  0.024874       0.34261342417793189                         0                         
                  0.025044       0.33606871617067857                         0                         
                  0.025214       0.32959187666802331                         0                         
                  0.025384       0.32318346323699637                         0                         
                  0.025554       0.31684400293996612                         0                         
      0.025722999999999999       0.31061067090459377                         0                         
      0.025892999999999999       0.30441016417696154                         0                         
      0.026062999999999999       0.29828000772512758                         0                         
      0.026232999999999999       0.29222060829779084                         0                         
      0.026402999999999999       0.28623234296933869                         0                         
      0.026571999999999998       0.28035015431821941                         0                         
      0.026741999999999998       0.27450474752521575                         0                         
      0.026911999999999998       0.26873142850673204                         0                         
      0.027081999999999998       0.26303045798578689                         0                         
      0.027251000000000001       0.25743496370719193                         0                         
      0.027421000000000001       0.25187892982222354                         0                         
      0.027591000000000001       0.24639585556188393                         0                         
      0.027761000000000001       0.24098588933989867                         0                         
      0.027931000000000001       0.23564915216807039                         0                         
                    0.0281       0.23041648469368081                         0                         
                   0.02827       0.22522602874909903                         0                         
                   0.02844        0.2201090034466795                         0                         
                   0.02861       0.21506542352298402                         0                         
                   0.02878        0.2100952779485071                         0                         
      0.028948999999999999       0.20522712018200712                         0                         
      0.029118999999999999       0.20040327777529998                         0                         
      0.029288999999999999       0.19565268620630044                         0                         
      0.029458999999999999       0.19097523515967976                         0                         
      0.029628999999999999       0.18637079041048346                         0                         
      0.029798000000000002       0.18186563800738587                         0                         
      0.029968000000000002       0.17740628263702013                         0                         
      0.030138000000000002       0.17301939267773969                         0                         
      0.030308000000000002       0.16870474241298089                         0                         
      0.030478000000000002       0.16446208425515429                         0                         
      0.030647000000000001       0.16031547492876111                         0                         
      0.030817000000000001       0.15621555357047529                         0                         
      0.030987000000000001       0.15218675650975841                         0                         
      0.031157000000000001       0.14822875311090933                         0                         
                  0.031326       0.14436385579047262                         0                         
      0.031496000000000003       0.14054595841912462                         0                         
                  0.031666       0.13679774880939533                         0                         
      0.031836000000000003       0.13311882039173703                         0                         
                  0.032006       0.12950874872799625                         0                         
      0.032175000000000002       0.12598772609717138                         0                         
      0.032344999999999999       0.12251362710623284                         0                         
      0.032515000000000002       0.11910701183765138                         0                         
      0.032684999999999999       0.11576738913495571                         0                         
      0.032855000000000002       0.11249425231258264                         0                         
      0.033023999999999998        0.1093057535157313                         0                         
      0.033194000000000001       0.10616362537704047                         0                         
      0.033363999999999998       0.10308637790811308                         0                         
      0.033534000000000001       0.10007344713251595                         0                         
      0.033703999999999998      0.097124255918417932                         0                         
                  0.033873      0.094255007691440698                         0                         
      0.034042999999999997      0.091431147819077199                         0                         
                  0.034213      0.088669225583427824                         0                         
      0.034382999999999997      0.085968616052372479                         0                         
                  0.034553      0.083328683509904355                         0                         
      0.034722000000000003      0.080763783566308214                         0                         
      0.034891999999999999      0.078242909744342809                         0                         
      0.035062000000000003      0.075780749705885678                         0                         
      0.035231999999999999      0.073376629347316355                         0                         
      0.035401000000000002      0.071043504239107394                         0                         
      0.035570999999999998      0.068753076296044893                         0                         
      0.035741000000000002      0.066518620995774116                         0                         
      0.035910999999999998      0.064339433230381021                         0                         
      0.036081000000000002      0.062214801263431964                         0                         
      0.036249999999999998      0.060156032307329403                         0                         
      0.036420000000000001      0.058138042135620981                         0                         
      0.036589999999999998      0.056172441536644961                         0                         
      0.036760000000000001      0.054258496719140535                         0                         
      0.036929999999999998      0.052395469455852176                         0                         
                  0.037099      0.050593136085810619                         0                         
      0.037268999999999997      0.048829425054619166                         0                         
                  0.037439       0.04711439892756155                         0                         
      0.037608999999999997      0.045447305956674081                         0                         
                  0.037779      0.043827392034029196                         0                         
      0.037948000000000003      0.042263022657307879                         0                         
      0.038117999999999999      0.040734930658231215                         0                         
      0.038288000000000003      0.039251749658182782                         0                         
      0.038457999999999999      0.037812720051755913                         0                         
      0.038628000000000003      0.036417081811020734                         0                         
      0.038796999999999998      0.035071910547896677                         0                         
      0.038967000000000002      0.033760531023597988                         0                         
      0.039136999999999998      0.032490268372541084                         0                         
      0.039307000000000002      0.031260364500859471                         0                         
      0.039475999999999997      0.030076950125063763                         0                         
      0.039646000000000001      0.028925268990944764                         0                         
      0.039815999999999997      0.027811686263870844                         0                         
      0.039986000000000001      0.026735451257162014                         0                         
      0.040155999999999997      0.025695815943349357                         0                         
                  0.040325      0.024697836463226121                         0                         
      0.040495000000000003      0.023728964237933338                         0                         
                  0.040665      0.022794470952527113                         0                         
      0.040835000000000003      0.021893622198691332                         0                         
                  0.041005      0.021025687691569466                         0                         
      0.041174000000000002      0.020194764983742942                         0                         
      0.041343999999999999      0.019390302954443966                         0                         
      0.041514000000000002      0.018616595927026962                         0                         
      0.041683999999999999      0.017872932711546632                         0                         
      0.041854000000000002      0.017158607518047153                         0                         
      0.042022999999999998      0.016476871262846964                         0                         
      0.042193000000000001      0.015818965143364769                         0                         
      0.042362999999999998      0.015188318394085494                         0                         
      0.042533000000000001      0.014584249036839381                         0                         
      0.042701999999999997      0.014009408132713119                         0                         
                  0.042872       0.01345632727137654                         0                         
      0.043041999999999997      0.012927821419604061                         0                         
                  0.043212      0.012423235631243956                         0                         
      0.043381999999999997      0.011941922174634459                         0                         
      0.043550999999999999      0.011485873883045804                         0                         
      0.043721000000000003      0.011049063991741942                         0                         
      0.043890999999999999      0.010633631776404971                         0                         
      0.044061000000000003      0.010238959876876537                         0                         
      0.044230999999999999     0.0098644388890930471                         0                         
      0.044400000000000002      0.009511499554462715                         0                         
      0.044569999999999999     0.0091753748350500326                         0                         
      0.044740000000000002     0.0088576251917736968                         0                         
      0.044909999999999999     0.0085576741831427418                         0                         
      0.045080000000000002     0.0082749538809558914                         0                         
      0.045248999999999998     0.0080104222834310179                         0                         
      0.045419000000000001     0.0077604008711819215                         0                         
      0.045588999999999998      0.007525961488122632                         0                         
      0.045759000000000001     0.0073065710382586016                         0                         
      0.045928999999999998     0.0071017053197504083                         0                         
                  0.046098     0.0069119317909772781                         0                         
      0.046267999999999997     0.0067345008114197379                         0                         
                  0.046438     0.0065700787477340136                         0                         
      0.046607999999999997     0.0064181774156293206                         0                         
      0.046776999999999999      0.006279106153431321                         0                         
      0.046947000000000003     0.0061507514796994116                         0                         
      0.047116999999999999     0.0060335104138984942                         0                         
      0.047287000000000003     0.0059269312753311848                         0                         
      0.047456999999999999      0.005830571553273778                         0                         
      0.047626000000000002     0.0057444793799994523                         0                         
      0.047795999999999998     0.0056672137889392446                         0                         
      0.047966000000000002     0.0055988974956102657                         0                         
      0.048135999999999998     0.0055391245669873636                         0                         
      0.048306000000000002     0.0054874981888416033                         0                         
      0.048474999999999997     0.0054438667386001614                         0                         
      0.048645000000000001     0.0054073370355164959                         0                         
      0.048814999999999997     0.0053778200157344755                         0                         
      0.048985000000000001     0.0053549549778070292                         0                         
      0.049154999999999997     0.0053383901605653554                         0                         
                  0.049324     0.0053278283252792295                         0                         
      0.049494000000000003     0.0053228120556381891                         0                         
                  0.049664      0.005323095734420101                         0                         
      0.049834000000000003     0.0053283627711719871                         0                         
                  0.050004      0.005338305225754179                         0                         
      0.050173000000000002     0.0053525272861476717                         0                         
      0.050342999999999999     0.0053709078068620636                         0                         
      0.050513000000000002     0.0053930927453041582                         0                         
      0.050682999999999999     0.0054188079774714947                         0                         
      0.050852000000000001      0.005447608136005519                         0                         
      0.051021999999999998     0.0054795776086232024                         0                         
      0.051192000000000001     0.0055143056882301505                         0                         
      0.051361999999999998     0.0055515507309995002                         0                         
      0.051532000000000001     0.0055910789931875489                         0                         
      0.051700999999999997     0.0056324143246678504                         0                         
                  0.051871     0.0056758287061823382                         0                         
      0.052040999999999997     0.0057208726980206206                         0                         
                  0.052211     0.0057673431056440936                         0                         
      0.052380999999999997     0.0058150441200634827                         0                         
      0.052549999999999999     0.0058634977933872618                         0                         
      0.052720000000000003     0.0059130970409881052                         0                         
                   0.05289     0.0059633836828627646                         0                         
      0.053060000000000003     0.0060141902991267008                         0                         
                   0.05323     0.0060653562914692958                         0                         
      0.053399000000000002     0.0061164252691796976                         0                         
      0.053568999999999999     0.0061678549921404787                         0                         
      0.053739000000000002     0.0062192028542850768                         0                         
      0.053908999999999999      0.006270334319621514                         0                         
      0.054079000000000002     0.0063211210755637808                         0                         
      0.054247999999999998     0.0063711465053071185                         0                         
      0.054418000000000001     0.0064208869433631053                         0                         
      0.054587999999999998     0.0064699344777664645                         0                         
      0.054758000000000001     0.0065181844238631197                         0                         
      0.054926999999999997     0.0065652619599377831                         0                         
                  0.055097     0.0066116310601416119                         0                         
      0.055266999999999997     0.0066569221537241046                         0                         
                  0.055437      0.006701052196592441                         0                         
      0.055606999999999997     0.0067439432502300507                         0                         
      0.055775999999999999      0.006785281744317224                         0                         
      0.055946000000000003     0.0068254891089339648                         0                         
      0.056115999999999999     0.0068642534118786057                         0                         
      0.056286000000000003     0.0069015158620623698                         0                         
      0.056455999999999999     0.0069372221523198978                         0                         
      0.056625000000000002     0.0069711265338469053                         0                         
      0.056794999999999998      0.007003584745364947                         0                         
      0.056965000000000002     0.0070343497833592061                         0                         
      0.057134999999999998     0.0070633840281393067                         0                         
      0.057305000000000002     0.0070906537357978668                         0                         
      0.057473999999999997     0.0071159843648037902                         0                         
      0.057644000000000001     0.0071396494552336811                         0                         
      0.057813999999999997     0.0071614709676275402                         0                         
      0.057984000000000001     0.0071814294585822802                         0                         
      0.058153000000000003     0.0071994079473586955                         0                         
                  0.058323     0.0072156062751655902                         0                         
      0.058493000000000003      0.007229902589273164                         0                         
                  0.058663     0.0072422899131912707                         0                         
      0.058833000000000003     0.0072527641141918271                         0                         
      0.059001999999999999     0.0072612790405524857                         0                         
      0.059172000000000002     0.0072679366782775401                         0                         
      0.059341999999999999     0.0072726847518897438                         0                         
      0.059512000000000002     0.0072755294209813645                         0                         
      0.059681999999999999     0.0072764791627719181                         0                         
      0.059851000000000001      0.007275555653861736                         0                         
      0.060020999999999998     0.0072727607086867912                         0                         
      0.060191000000000001     0.0072681090827618399                         0                         
      0.060360999999999998     0.0072616175232891938                         0                         
      0.060531000000000001     0.0072533046094238147                         0                         
      0.060699999999999997      0.007243255378127646                         0                         
                   0.06087     0.0072313727600733591                         0                         
      0.061039999999999997      0.007217734462456861                         0                         
      0.061210000000000001     0.0072023654813009935                         0                         
      0.061379999999999997     0.0071852922029016506                         0                         
                  0.061549     0.0071666574608623525                         0                         
      0.061719000000000003     0.0071462695005601803                         0                         
                  0.061889     0.0071242637434279533                         0                         
      0.062059000000000003     0.0071006713201060122                         0                         
      0.062227999999999999     0.0070756767608048787                         0                         
      0.062398000000000002     0.0070490171542004236                         0                         
      0.062567999999999999     0.0070208697479053313                         0                         
      0.062738000000000002      0.006991269213550629                         0                         
      0.062908000000000006      0.006960250935114389                         0                         
      0.063076999999999994     0.0069280455001931784                         0                         
      0.063246999999999998     0.0068943082111404966                         0                         
      0.063417000000000001     0.0068592627337502399                         0                         
      0.063587000000000005     0.0068229466578069191                         0                         
      0.063756999999999994     0.0067853979746194653                         0                         
      0.063925999999999997     0.0067468863370503448                         0                         
                  0.064096     0.0067069944224368338                         0                         
      0.064266000000000004     0.0066659854970502492                         0                         
      0.064435999999999993     0.0066238986090740165                         0                         
      0.064605999999999997     0.0065807729434368507                         0                         
      0.064774999999999999     0.0065369101800151902                         0                         
      0.064945000000000003     0.0064918303575803894                         0                         
      0.065115000000000006     0.0064458294339625258                         0                         
      0.065284999999999996     0.0063989466825514988                         0                         
      0.065454999999999999      0.006351221292894684                         0                         
      0.065624000000000002     0.0063029800699397325                         0                         
      0.065794000000000005     0.0062536908279764887                         0                         
      0.065963999999999995     0.0062036754037556483                         0                         
      0.066133999999999998     0.0061529722785118087                         0                         
      0.066303000000000001     0.0061019235699874361                         0                         
      0.066473000000000004     0.0060499628912203196                         0                         
      0.066642999999999994     0.0059974280352588965                         0                         
      0.066812999999999997     0.0059443562537246381                         0                         
      0.066983000000000001     0.0058907844201880706                         0                         
      0.067152000000000003     0.0058370681455360779                         0                         
      0.067322000000000007     0.0057826076022875804                         0                         
      0.067491999999999996     0.0057277549063546014                         0                         
                  0.067662     0.0056725451837579509                         0                         
      0.067832000000000003     0.0056170130702833639                         0                         
      0.068001000000000006     0.0055615218254239989                         0                         
      0.068170999999999995     0.0055054481861799955                         0                         
      0.068340999999999999     0.0054491527503791959                         0                         
      0.068511000000000002      0.005392668023535642                         0                         
      0.068681000000000006     0.0053360259406980033                         0                         
      0.068849999999999995     0.0052795920921512619                         0                         
      0.069019999999999998     0.0052227292303701905                         0                         
      0.069190000000000002     0.0051658010991088481                         0                         
      0.069360000000000005     0.0051088372402700042                         0                         
      0.069529999999999995     0.0050518665730997668                         0                         
      0.069698999999999997      0.004995252265108093                         0                         
      0.069869000000000001     0.0049383518435439037                         0                         
      0.070039000000000004      0.004881527408788053                         0                         
      0.070208999999999994     0.0048248053281606477                         0                         
      0.070377999999999996     0.0047685438006702221                         0                         
                  0.070548     0.0047121019513543198                         0                         
      0.070718000000000003     0.0046558375003953193                         0                         
      0.070888000000000007     0.0045997742005722637                         0                         
      0.071057999999999996     0.0045439351461544738                         0                         
      0.071226999999999999      0.004488669022807818                         0                         
      0.071397000000000002     0.0044333434663452222                         0                         
      0.071567000000000006     0.0043783073665502291                         0                         
      0.071736999999999995     0.0043235811925221683                         0                         
      0.071906999999999999     0.0042691847604340383                         0                         
      0.072076000000000001     0.0042154541065446745                         0                         
      0.072246000000000005     0.0041617717957941093                         0                         
      0.072415999999999994     0.0041084746859540774                         0                         
      0.072585999999999998     0.0040555800190285908                         0                         
      0.072756000000000001     0.0040031044033713124                         0                         
      0.072925000000000004     0.0039513686378582248                         0                         
      0.073094999999999993      0.003899775748617489                         0                         
      0.073264999999999997      0.003848647902972378                         0                         
                  0.073435     0.0037979992342048736                         0                         
      0.073604000000000003     0.0037481368407148172                         0                         
      0.073774000000000006     0.0036984835058073615                         0                         
      0.073943999999999996     0.0036493480812776922                         0                         
      0.074113999999999999     0.0036007423309125201                         0                         
      0.074284000000000003     0.0035526774439181151                         0                         
      0.074453000000000005     0.0035054419011510589                         0                         
      0.074622999999999995     0.0034584867185206958                         0                         
      0.074792999999999998     0.0034121025454334399                         0                         
      0.074963000000000002     0.0033662983572689377                         0                         
      0.075133000000000005     0.0033210825963052187                         0                         
      0.075301999999999994     0.0032767238893577108                         0                         
      0.075471999999999997     0.0032327046490356788                         0                         
      0.075642000000000001     0.0031892960132107189                         0                         
      0.075812000000000004     0.0031465043833329978                         0                         
      0.075981999999999994     0.0031043356724907325                         0                         
      0.076150999999999996     0.0030630378225370682                         0                         
                  0.076321     0.0030221270425204324                         0                         
      0.076491000000000003     0.0029818540574767303                         0                         
      0.076661000000000007     0.0029422229218422423                         0                         
      0.076830999999999997     0.0029032372478414131                         0                         
      0.076999999999999999     0.0028651238246147192                         0                         
      0.077170000000000002     0.0028274343490706701                         0                         
      0.077340000000000006     0.0027903985986431753                         0                         
      0.077509999999999996     0.0027540185116170703                         0                         
      0.077678999999999998     0.0027185038407262787                         0                         
      0.077849000000000002     0.0026834354446067916                         0                         
      0.078019000000000005     0.0026490261828850908                         0                         
      0.078188999999999995     0.0026152764659272049                         0                         
      0.078358999999999998     0.0025821863440099852                         0                         
      0.078528000000000001     0.0025499443591388512                         0                         
      0.078698000000000004     0.0025181683100660148                         0                         
      0.078867999999999994     0.0024870499411302543                         0                         
      0.079037999999999997      0.002456587951809126                         0                         
      0.079208000000000001     0.0024267807248363974                         0                         
      0.079377000000000003      0.002397795926384345                         0                         
      0.079547000000000007     0.0023692883271935602                         0                         
      0.079716999999999996     0.0023414288372380996                         0                         
                  0.079887     0.0023142146569066864                         0                         
      0.080057000000000003     0.0022876427107634779                         0                         
      0.080226000000000006     0.0022618603416444719                         0                         
      0.080395999999999995     0.0022365588475593556                         0                         
      0.080565999999999999     0.0022118888079577128                         0                         
      0.080736000000000002      0.002187846123104686                         0                         
      0.080906000000000006      0.002164426455621224                         0                         
      0.081074999999999994       0.00214175756353316                         0                         
      0.081244999999999998     0.0021195664091536183                         0                         
      0.081415000000000001     0.0020979839366794522                         0                         
      0.081585000000000005     0.0020770049312621528                         0                         
      0.081753999999999993     0.0020567421259148405                         0                         
      0.081923999999999997      0.002036950139447804                         0                         
                  0.082094     0.0020177448231837878                         0                         
      0.082264000000000004     0.0019991201941076415                         0                         
      0.082772999999999999     0.0019467658980079133                         0                         
      0.082943000000000003     0.0019303975153758305                         0                         
      0.083113000000000006      0.001914577429262421                         0                         
      0.083282999999999996     0.0018992986938019081                         0                         
      0.083451999999999998     0.0018846394074029213                         0                         
      0.083622000000000002     0.0018704189034716621                         0                         
      0.083792000000000005     0.0018567181404767728                         0                         
      0.083961999999999995     0.0018435296482135636                         0                         
      0.084131999999999998     0.0018308458390357664                         0                         
      0.084301000000000001     0.0018187292624422817                         0                         
      0.084471000000000004     0.0018070287590252266                         0                         
      0.084640999999999994     0.0017958095712349669                         0                         
      0.084810999999999998     0.0017850636951469022                         0                         
      0.084981000000000001     0.0017747830354532528                         0                         
      0.085150000000000003     0.0017650158762003731                         0                         
      0.085319999999999993     0.0017556384072481288                         0                         
      0.085489999999999997     0.0017467014194011954                         0                         
                   0.08566     0.0017381965015650237                         0                         
      0.085829000000000003     0.0017301614908392039                         0                         
      0.085999000000000006     0.0017224927998102338                         0                         
      0.086168999999999996     0.0017152306126112899                         0                         
      0.086338999999999999     0.0017083662781466865                         0                         
      0.086509000000000003     0.0017018910966816222                         0                         
      0.086678000000000005     0.0016958310807145304                         0                         
      0.086847999999999995     0.0016901057735930845                         0                         
      0.087017999999999998     0.0016847433250367964                         0                         
      0.087188000000000002     0.0016797348853357747                         0                         
      0.087358000000000005     0.0016750715781060723                         0                         
      0.087526999999999994     0.0016707689921556632                         0                         
      0.087696999999999997      0.001666767336066897                         0                         
      0.087867000000000001     0.0016630841183856355                         0                         
      0.088206999999999994     0.0016566372299589478                         0                         
      0.088375999999999996     0.0016538711918866393                         0                         
                  0.088546     0.0016513706484212168                         0                         
      0.088716000000000003     0.0016491438766900748                         0                         
      0.088886000000000007     0.0016471819482556981                         0                         
      0.089054999999999995     0.0016454852534549609                         0                         
      0.089224999999999999     0.0016440248610495383                         0                         
      0.089395000000000002     0.0016428026814785442                         0                         
      0.089565000000000006      0.001641809867696759                         0                         
      0.089734999999999995     0.0016410376027585496                         0                         
      0.089903999999999998     0.0016404797985465774                         0                         
      0.090074000000000001     0.0016401211512602765                         0                         
      0.090413999999999994     0.0016399783015964577                         0                         
      0.090583999999999998     0.0016401768306709961                         0                         
                  0.090753     0.0016405412664565833                         0                         
      0.090923000000000004     0.0016410674624189772                         0                         
      0.091092999999999993     0.0016417453083148821                         0                         
                  0.091433     0.0016435225058858236                         0                         
      0.091602000000000003     0.0016445985826752689                         0                         
      0.091772000000000006     0.0016457992650489007                         0                         
      0.091941999999999996     0.0016471104613894924                         0                         
      0.092111999999999999     0.0016485241635168064                         0                         
      0.092282000000000003     0.0016500324474922239                         0                         
      0.092451000000000005     0.0016516178558772282                         0                         
      0.092790999999999998     0.0016550364233085747                         0                         
      0.092961000000000002     0.0016568452419540281                         0                         
      0.093130000000000004      0.001658699322168945                         0                         
      0.093299999999999994     0.0016606132903654305                         0                         
      0.093469999999999998      0.001662569089080648                         0                         
      0.093640000000000001     0.0016645595824755078                         0                         
      0.093810000000000004     0.0016665777470151926                         0                         
      0.093978999999999993     0.0016686046331745195                         0                         
      0.094148999999999997        0.0016706574702216                         0                         
      0.094489000000000004     0.0016747786213024739                         0                         
      0.094658999999999993     0.0016768339667872824                         0                         
      0.094827999999999996      0.001678865418924873                         0                         
      0.095168000000000003       0.00168289227751429                         0                         
      0.095338000000000006     0.0016848636985102037                         0                         
      0.095507999999999996     0.0016867993926764874                         0                         
      0.095676999999999998     0.0016886827316203632                         0                         
      0.095847000000000002     0.0016905305548630179                         0                         
      0.096017000000000005     0.0016923262594656758                         0                         
      0.096186999999999995     0.0016940646591411331                         0                         
      0.096356999999999998     0.0016957407150425424                         0                         
      0.096526000000000001     0.0016973402796563028                         0                         
      0.096696000000000004     0.0016988775665022447                         0                         
      0.096865999999999994     0.0017003383206124917                         0                         
      0.097035999999999997     0.0017017181079226093                         0                         
                  0.097205     0.0017030052916735033                         0                         
      0.097375000000000003     0.0017042110015076128                         0                         
      0.097545000000000007     0.0017053233994211959                         0                         
      0.097714999999999996     0.0017063386768889043                         0                         
                  0.097885     0.0017072531844909205                         0                         
      0.098054000000000002      0.001708058977924827                         0                         
      0.098224000000000006     0.0017087622800831394                         0                         
      0.098393999999999995      0.001709354844253014                         0                         
      0.098734000000000002     0.0017101958919996509                         0                         
      0.098903000000000005     0.0017104377719799411                         0                         
      0.099072999999999994     0.0017105596569366337                         0                         
      0.099242999999999998     0.0017105574030621025                         0                         
      0.099413000000000001     0.0017104288133827166                         0                         
      0.099583000000000005     0.0017101718529866439                         0                         
      0.099751999999999993     0.0017097873106013788                         0                         
      0.099921999999999997      0.001709268931486629                         0                         
                  0.100092     0.0017086170542069241                         0                         
                  0.100262     0.0017078302868538907                         0                         
       0.10043199999999999     0.0017069073968689783                         0                         
                  0.100601     0.0017058539489710543                         0                         
                  0.100771     0.0017046565637371391                         0                         
                  0.100941      0.001703320308945037                         0                         
       0.10111100000000001     0.0017018445786031312                         0                         
                   0.10128     0.0017002388342203941                         0                         
                   0.10145     0.0016984837741895586                         0                         
                   0.10162     0.0016965883382874989                         0                         
       0.10179000000000001      0.001694552525995451                         0                         
                   0.10196     0.0016923764842776772                         0                         
                  0.102129      0.001690074537509884                         0                         
                  0.102299     0.0016876198774310141                         0                         
                  0.102469     0.0016850262908549396                         0                         
                  0.102809     0.0016794253415335129                         0                         
                  0.102978     0.0016764378972924823                         0                         
                  0.103148     0.0016732979223969585                         0                         
       0.10331799999999999      0.001670023944174436                         0                         
                  0.103488      0.001666617340128942                         0                         
                  0.103658     0.0016630796123633374                         0                         
                  0.103827     0.0016594343320309108                         0                         
       0.10399700000000001     0.0016556400937040821                         0                         
                  0.104167     0.0016517199460246218                         0                         
                  0.104337       0.00164767586017643                         0                         
       0.10467600000000001     0.0016392498600512873                         0                         
       0.10484599999999999     0.0016348475535393162                         0                         
                  0.105016     0.0016303302463455045                         0                         
       0.10552499999999999     0.0016161424836066542                         0                         
                  0.105865     0.0016061389911790961                         0                         
                  0.106035      0.001600987647370163                         0                         
       0.10620400000000001     0.0015957716799607747                         0                         
                  0.106374     0.0015904324138284274                         0                         
                  0.106544     0.0015850035694394765                         0                         
                  0.106714      0.001579488346885918                         0                         
       0.10688400000000001     0.0015738900071131819                         0                         
                  0.107053     0.0015682454957451101                         0                         
                  0.107223     0.0015624913684451169                         0                         
                  0.107393      0.001556664213652589                         0                         
       0.10756300000000001     0.0015507674974210863                         0                         
                  0.107733      0.001544804727591629                         0                         
                  0.108072     0.0015327311991197613                         0                         
       0.10841199999999999     0.0015204010793350496                         0                         
                  0.108751     0.0015079158872143249                         0                         
       0.10909099999999999     0.0014952313669480892                         0                         
                  0.109261     0.0014888373328528631                         0                         
                   0.10943       0.00148245160060838                         0                         
                    0.1096     0.0014760022969031684                         0                         
       0.10977000000000001     0.0014695308359954648                         0                         
                   0.10994     0.0014630409230198924                         0                         
       0.11044900000000001     0.0014435357284989757                         0                         
                  0.110619     0.0014370088048982648                         0                         
                  0.110789     0.0014304817044699396                         0                         
                  0.110959     0.0014239580169143561                         0                         
                  0.111128     0.0014174796073577532                         0                         
       0.11129799999999999     0.0014109733157073624                         0                         
                  0.111468     0.0014044809872943822                         0                         
                  0.111808     0.0013915519662644578                         0                         
       0.11197699999999999      0.001385159781640308                         0                         
                  0.112147     0.0013787571613117237                         0                         
                  0.112317     0.0013723852606982261                         0                         
                  0.112487     0.0013660472829262922                         0                         
       0.11265600000000001     0.0013597833239009315                         0                         
                  0.113166     0.0013411327785996104                         0                         
       0.11333600000000001     0.0013350100851762649                         0                         
       0.11350499999999999     0.0013289747897611323                         0                         
                  0.113675     0.0013229582106749601                         0                         
       0.11401500000000001     0.0013110994600907351                         0                         
                  0.114354     0.0012995240199521656                         0                         
                  0.114524     0.0012938186849526553                         0                         
                  0.114694     0.0012881828669799038                         0                         
       0.11486399999999999     0.0012826187780299494                         0                         
                  0.115034     0.0012771285464602288                         0                         
                  0.115373     0.0012664089033975108                         0                         
       0.11554300000000001     0.0012611516863183833                         0                         
                  0.115713     0.0012559759713187061                         0                         
                  0.115883     0.0012508834533789212                         0                         
                  0.116052     0.0012459049444694132                         0                         
                  0.116562      0.001231403764175108                         0                         
                  0.116731      0.001226776095480629                         0                         
                  0.116901      0.001222212240927881                         0                         
                  0.117241     0.0012133630828058122                         0                         
                  0.117411     0.0012090796314339904                         0                         
                   0.11758     0.0012049157056481584                         0                         
       0.11774999999999999     0.0012008227240956823                         0                         
                   0.11809     0.0011929266989736712                         0                         
       0.11842900000000001     0.0011854417799881511                         0                         
                  0.118769     0.0011783261891263263                         0                         
                  0.118939      0.001174915752088898                         0                         
       0.11910900000000001     0.0011716035772706536                         0                         
                  0.119448     0.0011652916229473388                         0                         
                  0.119618     0.0011622728024977763                         0                         
       0.11995699999999999     0.0011565433405480801                         0                         
                  0.120297     0.0011511824157980327                         0                         
                  0.120467     0.0011486452474445358                         0                         
       0.12063699999999999     0.0011462026817731159                         0                         
                  0.120976     0.0011416111488706643                         0                         
       0.12131599999999999     0.0011373736424786138                         0                         
                  0.121486     0.0011353904235749371                         0                         
                  0.121655     0.0011335069802221856                         0                         
                  0.121825     0.0011316998533818933                         0                         
       0.12199500000000001     0.0011299792141426742                         0                         
                  0.122335     0.0011267921824667428                         0                         
                  0.122504     0.0011253314516527883                         0                         
       0.12267400000000001     0.0011239428526947542                         0                         
                  0.123014     0.0011214026767846345                         0                         
                  0.123184     0.0011202479735732376                         0                         
                  0.123353     0.0011191741757660344                         0                         
       0.12352299999999999     0.0011181669180279476                         0                         
                  0.123863     0.0011163648929138983                         0                         
                  0.124542     0.0011135644347841933                         0                         
                  0.124712     0.0011130191355800054                         0                         
       0.12488100000000001     0.0011125351808385724                         0                         
                  0.125221     0.0011117294929505954                         0                         
       0.12606999999999999     0.0011106063604553922                         0                         
       0.12623999999999999     0.0011105181843599026                         0                         
       0.12708900000000001     0.0011106514514798486                         0                         
       0.12725900000000001     0.0011107791231116831                         0                         
       0.12742800000000001     0.0011109348894002549                         0                         
       0.12759799999999999     0.0011111186519408745                         0                         
                  0.128277      0.001112085108822401                         0                         
       0.12844700000000001     0.0011123758298782964                         0                         
       0.12878700000000001     0.0011130028699772882                         0                         
       0.12895599999999999     0.0011133335829430803                         0                         
       0.12929599999999999     0.0011140284034604055                         0                         
                  0.129466     0.0011143871336626366                         0                         
                  0.129636     0.0011147511572606791                         0                         
                  0.129805     0.0011151166533330213                         0                         
       0.12997500000000001     0.0011154863372173376                         0                         
       0.13014500000000001     0.0011158564711817279                         0                         
       0.13048499999999999     0.0011165919285883643                         0                         
                  0.130824     0.0011173089895307358                         0                         
                  0.130994     0.0011176589144207309                         0                         
       0.13150300000000001     0.0011186519176576404                         0                         
       0.13167300000000001     0.0011189610417127412                         0                         
       0.13184299999999999     0.0011192568590992656                         0                         
       0.13201299999999999     0.0011195382158990356                         0                         
       0.13218199999999999     0.0011198024853072805                         0                         
                  0.132352     0.0011200517322020995                         0                         
       0.13303100000000001      0.001120861607839217                         0                         
       0.13320100000000001     0.0011210133344089013                         0                         
       0.13337099999999999     0.0011211429493749607                         0                         
       0.13354099999999999     0.0011212496940536938                         0                         
                  0.133711     0.0011213328542452265                         0                         
       0.13422000000000001     0.0011214343761679919                         0                         
       0.13439000000000001     0.0011214170965322648                         0                         
       0.13506899999999999     0.0011210796027874502                         0                         
                  0.135239     0.0011209259555727841                         0                         
                  0.135578     0.0011205347863265666                         0                         
       0.13574800000000001     0.0011202956699479559                         0                         
       0.13591800000000001      0.001120027633292232                         0                         
       0.13625699999999999     0.0011194063552545555                         0                         
                  0.136597     0.0011186667732532058                         0                         
                  0.136937     0.0011178106281376742                         0                         
       0.13710600000000001     0.0011173418845828245                         0                         
       0.13744600000000001     0.0011163126221549872                         0                         
       0.13761599999999999     0.0011157551559190788                         0                         
       0.13778599999999999     0.0011151694287309117                         0                         
                  0.138125     0.0011139181152855695                         0                         
                  0.138295     0.0011132494436706223                         0                         
                  0.138465     0.0011125537232455087                         0                         
       0.13863500000000001     0.0011118313265604922                         0                         
       0.13880400000000001     0.0011110871318645056                         0                         
       0.13897399999999999     0.0011103127529450887                         0                         
       0.13931399999999999     0.0011086882311559054                         0                         
                  0.139823     0.0011060747371927221                         0                         
       0.13999300000000001     0.0011051554814022393                         0                         
       0.14016300000000001     0.0011042139312231478                         0                         
       0.14033200000000001     0.0011032563990298586                         0                         
       0.14084199999999999     0.0011002427743239912                         0                         
                  0.141351     0.0010970625176427787                         0                         
       0.14152100000000001     0.0010959650041929001                         0                         
       0.14202999999999999     0.0010925825508687995                         0                         
       0.14219999999999999     0.0010914229704194775                         0                         
                   0.14271     0.0010878642957478453                         0                         
       0.14304900000000001     0.0010854395593443526                         0                         
       0.14321900000000001     0.0010842079312865141                         0                         
       0.14338899999999999     0.0010829667772500355                         0                         
       0.14355799999999999     0.0010817241866511375                         0                         
       0.14372799999999999     0.0010804661609533112                         0                         
                  0.143898     0.0010792007347970507                         0                         
       0.14474699999999999     0.0010727946662816169                         0                         
       0.14508699999999999     0.0010702016458456005                         0                         
       0.14610500000000001     0.0010624118536784791                         0                         
       0.14627499999999999     0.0010611137808087402                         0                         
                  0.146785     0.0010572362191292343                         0                         
       0.14746400000000001     0.0010521330786761821                         0                         
       0.14763299999999999     0.0010508769146688631                         0                         
                  0.148313     0.0010458932539450275                         0                         
       0.15001100000000001      0.001034086861439679                         0                         
                         
